…
  separate(mon, into = c("year", "month", "day"), sep = "-" ) |>   # Use `separate()` to break up the variable `mon`
  mutate(
    year = as.integer(year),
    month = factor(month.name[as.integer(month)],
         levels = month.name),
         president =         # Create a `president` variable
           case_when(
             prez_gop == 1 ~ "gop",
             prez_dem == 1 ~ "dem")) |> 
  select(year, month, president, everything(), -day, -prez_gop, -prez_dem) |>  # Remove three variables
  arrange(year, month)
pols_df
```

    ## # A tibble: 822 × 9
    ##     year month     president gov_gop sen_gop rep_gop gov_dem sen_dem rep_dem
    ##    <int> <fct>     <chr>       <dbl>   <dbl>   <dbl>   <dbl>   <dbl>   <dbl>
    ##  1  1947 January   dem            23      51     253      23      45     198
    ##  2  1947 February  dem            23      51     253      23      45     198
    ##  3  1947 March     dem            23      51     253      23      45     198
    ##  4  1947 April     dem            23      51     253      23      45     198
    ##  5  1947 May       dem            23      51     253      23      45     198
    ##  6  1947 June      dem            23      51     253      23      45     198
    ##  7  1947 July      dem            23      51     253      23      45     198
    ##  8  1947 August    dem            23      51     253      23      45     198
    ##  9  1947 September dem            23      51     253      23      45     198
    ## 10  1947 October   dem            23      51     253      23      45     198
    ## # ℹ 812 more rows
…
  janitor::clean_names() |>
  mutate(
   date  = mdy(date),
   date = if_else(date > Sys.Date(), date %m-% years(100), date)) |> 
  separate(date, into = c("year", "month", "day"), sep = "-") |>
  mutate(
   year = as.integer(year),
   month = factor(month.name[as.integer(month)],
         levels = month.name)) |> 
  select(year, month, close) |> 
  arrange(year, month)
snp_df
```

    ## # A tibble: 787 × 3
    ##     year month     close
    ##    <int> <fct>     <dbl>
    ##  1  1950 January    17.0
    ##  2  1950 February   17.2
    ##  3  1950 March      17.3
    ##  4  1950 April      18.0
    ##  5  1950 May        18.8
    ##  6  1950 June       17.7
    ##  7  1950 July       17.8
    ##  8  1950 August     18.4
    ##  9  1950 September  19.5
    ## 10  1950 October    19.5
    ## # ℹ 777 more rows
…
  janitor::clean_names() |>
  pivot_longer(                # Switching from “wide” to “long” format
    jan:dec,
    names_to = "month",
    values_to = "unemp_rate") |>
   mutate(         # Make sure that key variables have the same name and same values
    year = as.integer(year),
    month = match(str_to_title(month), month.abb),
    month = factor(month.name[as.integer(month)],
         levels = month.name)) |> 
  arrange(year, month)
unemp_df
```

    ## # A tibble: 816 × 3
    ##     year month     unemp_rate
    ##    <int> <fct>          <dbl>
    ##  1  1948 January          3.4
    ##  2  1948 February         3.8
    ##  3  1948 March            4  
    ##  4  1948 April            3.9
    ##  5  1948 May              3.5
    ##  6  1948 June             3.6
    ##  7  1948 July             3.6
    ##  8  1948 August           3.9
    ##  9  1948 September        3.8
    ## 10  1948 October          3.7
    ## # ℹ 806 more rows
#### Joining datasets

``` r
# Join the datasets by merging `snp` into `pols`

pols_snp =
  left_join(pols_df, snp_df, by = c("year", "month")) 

# Merging `unemployment` into the result
merged_df = 
  left_join(pols_snp, unemp_df, by = c("year", "month")) 
merged_df
```

    ## # A tibble: 822 × 11
    ##     year month   president gov_gop sen_gop rep_gop gov_dem sen_dem rep_dem close
    ##    <int> <fct>   <chr>       <dbl>   <dbl>   <dbl>   <dbl>   <dbl>   <dbl> <dbl>
    ##  1  1947 January dem            23      51     253      23      45     198    NA
    ##  2  1947 Februa… dem            23      51     253      23      45     198    NA
    ##  3  1947 March   dem            23      51     253      23      45     198    NA
    ##  4  1947 April   dem            23      51     253      23      45     198    NA
    ##  5  1947 May     dem            23      51     253      23      45     198    NA
    ##  6  1947 June    dem            23      51     253      23      45     198    NA
    ##  7  1947 July    dem            23      51     253      23      45     198    NA
    ##  8  1947 August  dem            23      51     253      23      45     198    NA
    ##  9  1947 Septem… dem            23      51     253      23      45     198    NA
    ## 10  1947 October dem            23      51     253      23      45     198    NA
    ## # ℹ 812 more rows
    ## # ℹ 1 more variable: unemp_rate <dbl>
…
      plastic_bottles = starts_with("plastic_bottles"),
      polystyrene = starts_with("polystyrene"),
      cigarette = starts_with("cigarette"),
      glass = starts_with("glass"),
      plastic = starts_with("plastic"),
      wrappers = starts_with("wrappers"),
      sports = starts_with("sports"),
      homes = starts_with("homes")) |> 
  filter(!is.na(dumpster)) |>     # Remove the rows that do not have `dumpster` data
  mutate(date = as.Date(date),
         sports = ifelse(is.na(sports), NA_integer_, as.integer(round(sports))))# Round the number of sports balls to the nearest integer and convert the result into an integer variable.
wheel_tidy
```

    ## # A tibble: 1,188 × 15
    ##    dumpster month  year date       weight volume_cubic_yards plastic1
    ##       <dbl> <chr> <dbl> <date>      <dbl>              <dbl>    <dbl>
    ##  1        1 May    2014 2014-05-16   4.31                 18     1450
    ##  2        2 May    2014 2014-05-16   2.74                 13     1120
    ##  3        3 May    2014 2014-05-16   3.45                 15     2450
    ##  4        4 May    2014 2014-05-17   3.1                  15     2380
    ##  5        5 May    2014 2014-05-17   4.06                 18      980
    ##  6        6 May    2014 2014-05-20   2.71                 13     1430
    ##  7        7 May    2014 2014-05-21   1.91                  8      910
    ##  8        8 May    2014 2014-05-28   3.7                  16     3580
    ##  9        9 June   2014 2014-06-05   2.52                 14     2400
    ## 10       10 June   2014 2014-06-11   3.76                 18     1340
    ## # ℹ 1,178 more rows
    ## # ℹ 8 more variables: polystyrene <dbl>, cigarette <dbl>, glass <dbl>,
    ## #   plastic2 <dbl>, wrappers <dbl>, sports <int>, homes <dbl>, wheel <chr>
…
  mutate(
    zipcode = as.integer(zip_code),
    neighborhood = as.character(neighborhood),
    country = as.character(county),
    borough = recode(county,     # Recoded into the 5 borough of New York City
                     "Bronx"   = "Bronx",
                     "Kings"   = "Brooklyn",
                     "New York"= "Manhattan",
                     "Queens"  = "Queens",
                     "Richmond"= "Staten Island")) |>
  select(county, zipcode, neighborhood, borough) 
zip_df
```

    ## # A tibble: 322 × 4
    ##    county zipcode neighborhood               borough
    ##    <chr>    <int> <chr>                      <chr>  
    ##  1 Bronx    10451 High Bridge and Morrisania Bronx  
    ##  2 Bronx    10452 High Bridge and Morrisania Bronx  
    ##  3 Bronx    10453 Central Bronx              Bronx  
    ##  4 Bronx    10454 Hunts Point and Mott Haven Bronx  
    ##  5 Bronx    10455 Hunts Point and Mott Haven Bronx  
    ##  6 Bronx    10456 High Bridge and Morrisania Bronx  
    ##  7 Bronx    10457 Central Bronx              Bronx  
    ##  8 Bronx    10458 Bronx Park and Fordham     Bronx  
    ##  9 Bronx    10459 Hunts Point and Mott Haven Bronx  
    ## 10 Bronx    10460 Central Bronx              Bronx  
    ## # ℹ 312 more rows
…
  rename(zipcode = region_name) |> 
  mutate(
    county_name = str_replace(county_name, "county", ""),
    zipcode = as.integer(zipcode)) |>
  pivot_longer(       # Arrange the date data into a single column
    cols = 10:125,              
    names_to  = "date",
    values_to = "zori",
    names_prefix = "x") |> 
  select(region_id, zipcode, county_name, date, zori) |> 
  arrange(zipcode, date)
zori_df
```

    ## # A tibble: 17,284 × 5
    ##    region_id zipcode county_name     date        zori
    ##        <dbl>   <int> <chr>           <chr>      <dbl>
    ##  1     61615   10001 New York County 2015_01_31 3855.
    ##  2     61615   10001 New York County 2015_02_28 3892.
    ##  3     61615   10001 New York County 2015_03_31 3898.
    ##  4     61615   10001 New York County 2015_04_30 3970.
    ##  5     61615   10001 New York County 2015_05_31 4033.
    ##  6     61615   10001 New York County 2015_06_30 4071.
    ##  7     61615   10001 New York County 2015_07_31 4067.
    ##  8     61615   10001 New York County 2015_08_31 4070.
    ##  9     61615   10001 New York County 2015_09_30 4040.
    ## 10     61615   10001 New York County 2015_10_31 4023.
    ## # ℹ 17,274 more rows
…
zip_info_one =     # Remove duplicate data
  zip_df |>
  mutate(zipcode = as.integer(zipcode)) |>
  distinct(zipcode, .keep_all = TRUE)
zori_tidy = 
  zori_df |>
  left_join(zip_info_one, by = "zipcode") |>
  arrange(zipcode, date) |> 
  select(zipcode, borough, neighborhood, date, zori,
         county = county_name) |>
  arrange(zipcode, date, borough,neighborhood)
zori_tidy
```

    ## # A tibble: 17,284 × 6
    ##    zipcode borough   neighborhood        date        zori county         
    ##      <int> <chr>     <chr>               <chr>      <dbl> <chr>          
    ##  1   10001 Manhattan Chelsea and Clinton 2015_01_31 3855. New York County
    ##  2   10001 Manhattan Chelsea and Clinton 2015_02_28 3892. New York County
    ##  3   10001 Manhattan Chelsea and Clinton 2015_03_31 3898. New York County
    ##  4   10001 Manhattan Chelsea and Clinton 2015_04_30 3970. New York County
    ##  5   10001 Manhattan Chelsea and Clinton 2015_05_31 4033. New York County
    ##  6   10001 Manhattan Chelsea and Clinton 2015_06_30 4071. New York County
    ##  7   10001 Manhattan Chelsea and Clinton 2015_07_31 4067. New York County
    ##  8   10001 Manhattan Chelsea and Clinton 2015_08_31 4070. New York County
    ##  9   10001 Manhattan Chelsea and Clinton 2015_09_30 4040. New York County
    ## 10   10001 Manhattan Chelsea and Clinton 2015_10_31 4023. New York County
    ## # ℹ 17,274 more rows
…
#### Problem 3.2

``` r
zip_in_zipcode =
  zip_df |>
  anti_join(unique(zori_df["zipcode"]), by = "zipcode") |>
  arrange(borough, zipcode)
zip_in_zipcode
```

    ## # A tibble: 171 × 4
    ##    county zipcode neighborhood               borough 
    ##    <chr>    <int> <chr>                      <chr>   
    ##  1 Bronx    10464 Southeast Bronx            Bronx   
    ##  2 Bronx    10474 Hunts Point and Mott Haven Bronx   
    ##  3 Bronx    10475 Northeast Bronx            Bronx   
    ##  4 Bronx    10499 <NA>                       Bronx   
    ##  5 Bronx    10550 <NA>                       Bronx   
    ##  6 Bronx    10704 <NA>                       Bronx   
    ##  7 Bronx    10705 <NA>                       Bronx   
    ##  8 Bronx    10803 <NA>                       Bronx   
    ##  9 Kings    11202 <NA>                       Brooklyn
    ## 10 Kings    11224 Southern Brooklyn          Brooklyn
    ## # ℹ 161 more rows
…
